%!PS-Adobe-3.0 EPSF-3.0
%%Creator: MATLAB, The MathWorks, Inc. Version 7.11.0.584 (R2010b). Operating System: Microsoft Windows 7.
%%Title: C:\Users\Chris\Documents\MATLAB\pnw.eps
%%CreationDate: 12/03/2010  21:12:54
%%DocumentNeededFonts: Helvetica
%%DocumentProcessColors: Cyan Magenta Yellow Black
%%LanguageLevel: 2
%%Pages: 1
%%BoundingBox:    55   193   556   597
%%EndComments

%%BeginProlog
% MathWorks dictionary
/MathWorks 160 dict begin
% definition operators
/bdef {bind def} bind def
/ldef {load def} bind def
/xdef {exch def} bdef
/xstore {exch store} bdef
% operator abbreviations
/c  /clip ldef
/cc /concat ldef
/cp /closepath ldef
/gr /grestore ldef
/gs /gsave ldef
/mt /moveto ldef
/np /newpath ldef
/cm /currentmatrix ldef
/sm /setmatrix ldef
/rm /rmoveto ldef
/rl /rlineto ldef
/s {show newpath} bdef
/sc {setcmykcolor} bdef
/sr /setrgbcolor ldef
/sg /setgray ldef
/w /setlinewidth ldef
/j /setlinejoin ldef
/cap /setlinecap ldef
/rc {rectclip} bdef
/rf {rectfill} bdef
% page state control
/pgsv () def
/bpage {/pgsv save def} bdef
/epage {pgsv restore} bdef
/bplot /gsave ldef
/eplot {stroke grestore} bdef
% orientation switch
/portraitMode 0 def /landscapeMode 1 def /rotateMode 2 def
% coordinate system mappings
/dpi2point 0 def
% font control
/FontSize 0 def
/FMS {/FontSize xstore findfont [FontSize 0 0 FontSize neg 0 0]
  makefont setfont} bdef
/ISOLatin1Encoding where {pop /WindowsLatin1Encoding 256 array bdef
ISOLatin1Encoding WindowsLatin1Encoding copy pop
/.notdef/.notdef/quotesinglbase/florin/quotedblbase/ellipsis/dagger
/daggerdbl/circumflex/perthousand/Scaron/guilsinglleft/OE/.notdef/.notdef
/.notdef/.notdef/quoteleft/quoteright/quotedblleft/quotedblright/bullet
/endash/emdash/tilde/trademark/scaron/guilsinglright/oe/.notdef/.notdef
/Ydieresis WindowsLatin1Encoding 128 32 getinterval astore pop}
{/WindowsLatin1Encoding StandardEncoding bdef} ifelse
/reencode {exch dup where {pop load} {pop StandardEncoding} ifelse
  exch dup 3 1 roll findfont dup length dict begin
  { 1 index /FID ne {def}{pop pop} ifelse } forall
  /Encoding exch def currentdict end definefont pop} bdef
/isroman {findfont /CharStrings get /Agrave known} bdef
/FMSR {3 1 roll 1 index dup isroman {reencode} {pop pop} ifelse
  exch FMS} bdef
/csm {1 dpi2point div -1 dpi2point div scale neg translate
 dup landscapeMode eq {pop -90 rotate}
  {rotateMode eq {90 rotate} if} ifelse} bdef
% line types: solid, dotted, dashed, dotdash
/SO { [] 0 setdash } bdef
/DO { [.5 dpi2point mul 4 dpi2point mul] 0 setdash } bdef
/DA { [6 dpi2point mul] 0 setdash } bdef
/DD { [.5 dpi2point mul 4 dpi2point mul 6 dpi2point mul 4
  dpi2point mul] 0 setdash } bdef
% macros for lines and objects
/L {lineto stroke} bdef
/MP {3 1 roll moveto 1 sub {rlineto} repeat} bdef
/AP {{rlineto} repeat} bdef
/PDlw -1 def
/W {/PDlw currentlinewidth def setlinewidth} def
/PP {closepath eofill} bdef
/DP {closepath stroke} bdef
/MR {4 -2 roll moveto dup  0 exch rlineto exch 0 rlineto
  neg 0 exch rlineto closepath} bdef
/FR {MR stroke} bdef
/PR {MR fill} bdef
/L1i {{currentfile picstr readhexstring pop} image} bdef
/tMatrix matrix def
/MakeOval {newpath tMatrix currentmatrix pop translate scale
0 0 1 0 360 arc tMatrix setmatrix} bdef
/FO {MakeOval stroke} bdef
/PO {MakeOval fill} bdef
/PD {currentlinewidth 2 div 0 360 arc fill
   PDlw -1 eq not {PDlw w /PDlw -1 def} if} def
/FA {newpath tMatrix currentmatrix pop translate scale
  0 0 1 5 -2 roll arc tMatrix setmatrix stroke} bdef
/PA {newpath tMatrix currentmatrix pop	translate 0 0 moveto scale
  0 0 1 5 -2 roll arc closepath tMatrix setmatrix fill} bdef
/FAn {newpath tMatrix currentmatrix pop translate scale
  0 0 1 5 -2 roll arcn tMatrix setmatrix stroke} bdef
/PAn {newpath tMatrix currentmatrix pop translate 0 0 moveto scale
  0 0 1 5 -2 roll arcn closepath tMatrix setmatrix fill} bdef
/vradius 0 def /hradius 0 def /lry 0 def
/lrx 0 def /uly 0 def /ulx 0 def /rad 0 def
/MRR {/vradius xdef /hradius xdef /lry xdef /lrx xdef /uly xdef
  /ulx xdef newpath tMatrix currentmatrix pop ulx hradius add uly
  vradius add translate hradius vradius scale 0 0 1 180 270 arc 
  tMatrix setmatrix lrx hradius sub uly vradius add translate
  hradius vradius scale 0 0 1 270 360 arc tMatrix setmatrix
  lrx hradius sub lry vradius sub translate hradius vradius scale
  0 0 1 0 90 arc tMatrix setmatrix ulx hradius add lry vradius sub
  translate hradius vradius scale 0 0 1 90 180 arc tMatrix setmatrix
  closepath} bdef
/FRR {MRR stroke } bdef
/PRR {MRR fill } bdef
/MlrRR {/lry xdef /lrx xdef /uly xdef /ulx xdef /rad lry uly sub 2 div def
  newpath tMatrix currentmatrix pop ulx rad add uly rad add translate
  rad rad scale 0 0 1 90 270 arc tMatrix setmatrix lrx rad sub lry rad
  sub translate rad rad scale 0 0 1 270 90 arc tMatrix setmatrix
  closepath} bdef
/FlrRR {MlrRR stroke } bdef
/PlrRR {MlrRR fill } bdef
/MtbRR {/lry xdef /lrx xdef /uly xdef /ulx xdef /rad lrx ulx sub 2 div def
  newpath tMatrix currentmatrix pop ulx rad add uly rad add translate
  rad rad scale 0 0 1 180 360 arc tMatrix setmatrix lrx rad sub lry rad
  sub translate rad rad scale 0 0 1 0 180 arc tMatrix setmatrix
  closepath} bdef
/FtbRR {MtbRR stroke } bdef
/PtbRR {MtbRR fill } bdef
/stri 6 array def /dtri 6 array def
/smat 6 array def /dmat 6 array def
/tmat1 6 array def /tmat2 6 array def /dif 3 array def
/asub {/ind2 exch def /ind1 exch def dup dup
  ind1 get exch ind2 get sub exch } bdef
/tri_to_matrix {
  2 0 asub 3 1 asub 4 0 asub 5 1 asub
  dup 0 get exch 1 get 7 -1 roll astore } bdef
/compute_transform {
  dmat dtri tri_to_matrix tmat1 invertmatrix 
  smat stri tri_to_matrix tmat2 concatmatrix } bdef
/ds {stri astore pop} bdef
/dt {dtri astore pop} bdef
/db {2 copy /cols xdef /rows xdef mul dup 3 mul string
  currentfile 
  3 index 0 eq {/ASCIIHexDecode filter}
  {/ASCII85Decode filter 3 index 2 eq {/RunLengthDecode filter} if }
  ifelse exch readstring pop
  dup 0 3 index getinterval /rbmap xdef
  dup 2 index dup getinterval /gbmap xdef
  1 index dup 2 mul exch getinterval /bbmap xdef pop pop}bdef
/it {gs np dtri aload pop moveto lineto lineto cp c
  cols rows 8 compute_transform 
  rbmap gbmap bbmap true 3 colorimage gr}bdef
/il {newpath moveto lineto stroke}bdef
currentdict end def
%%EndProlog

%%BeginSetup
MathWorks begin

0 cap

end
%%EndSetup

%%Page: 1 1
%%BeginPageSetup
%%PageBoundingBox:    55   193   556   597
MathWorks begin
bpage
%%EndPageSetup

%%BeginObject: obj1
bplot

/dpi2point 12 def
portraitMode 0660 7164 csm

    0     0  6012  4842 rc
87 dict begin %Colortable dictionary
/c0 { 0.000000 0.000000 0.000000 sr} bdef
/c1 { 1.000000 1.000000 1.000000 sr} bdef
/c2 { 0.900000 0.000000 0.000000 sr} bdef
/c3 { 0.000000 0.820000 0.000000 sr} bdef
/c4 { 0.000000 0.000000 0.800000 sr} bdef
/c5 { 0.910000 0.820000 0.320000 sr} bdef
/c6 { 1.000000 0.260000 0.820000 sr} bdef
/c7 { 0.000000 0.820000 0.820000 sr} bdef
c0
1 j
1 sg
   0    0 6013 4843 rf
6 w
0 3829 4659 0 0 -3829 782 4298 4 MP
PP
-4659 0 0 3829 4659 0 0 -3829 782 4298 5 MP stroke
4 w
DO
SO
6 w
0 sg
 782  469 mt 5441  469 L
 782 4298 mt 5441 4298 L
5441 4298 mt 5441  469 L
 782 4298 mt  782  469 L
 782 4298 mt 5441 4298 L
 782 4298 mt  782  469 L
1558 4298 mt 1558 4251 L
1558  469 mt 1558  515 L
%%IncludeResource: font Helvetica
/Helvetica /WindowsLatin1Encoding 240 FMSR

1492 4555 mt 
(1) s
3111 4298 mt 3111 4251 L
3111  469 mt 3111  515 L
3045 4555 mt 
(2) s
4664 4298 mt 4664 4251 L
4664  469 mt 4664  515 L
4598 4555 mt 
(3) s
 782 4298 mt  828 4298 L
5441 4298 mt 5394 4298 L
 474 4387 mt 
(-5) s
 782 3659 mt  828 3659 L
5441 3659 mt 5394 3659 L
 614 3748 mt 
(0) s
 782 3021 mt  828 3021 L
5441 3021 mt 5394 3021 L
 614 3110 mt 
(5) s
 782 2383 mt  828 2383 L
5441 2383 mt 5394 2383 L
 481 2472 mt 
(10) s
 782 1745 mt  828 1745 L
5441 1745 mt 5394 1745 L
 481 1834 mt 
(15) s
 782 1107 mt  828 1107 L
5441 1107 mt 5394 1107 L
 481 1196 mt 
(20) s
 782  469 mt  828  469 L
5441  469 mt 5394  469 L
 481  558 mt 
(25) s
 782  469 mt 5441  469 L
 782 4298 mt 5441 4298 L
5441 4298 mt 5441  469 L
 782 4298 mt  782  469 L
gs 782 469 4660 3830 rc
24 w
/c8 { 0.168627 0.505882 0.337255 sr} bdef
c8
0 164 1558 1710 2 MP stroke
62 0 1527 1710 2 MP stroke
62 0 1527 1874 2 MP stroke
0 268 3111 1180 2 MP stroke
62 0 3080 1180 2 MP stroke
62 0 3080 1448 2 MP stroke
0 341 4664 772 2 MP stroke
62 0 4633 772 2 MP stroke
62 0 4633 1113 2 MP stroke
gs 1352 737 3519 1262 rc
  90   90 1558 1792 FO
  90   90 3111 1314 FO
  90   90 4664  943 FO
gr

/c9 { 0.847059 0.160784 0.000000 sr} bdef
c9
0 1152 1558 2877 2 MP stroke
62 0 1527 2877 2 MP stroke
62 0 1527 4029 2 MP stroke
0 1120 3111 2754 2 MP stroke
62 0 3080 2754 2 MP stroke
62 0 3080 3874 2 MP stroke
0 1099 4664 2499 2 MP stroke
62 0 4633 2499 2 MP stroke
62 0 4633 3598 2 MP stroke
gs 1376 2867 3471 769 rc
0 j
-90 155 -90 -155 180 0 1468 3505 4 MP
DP
-90 155 -90 -155 180 0 3021 3366 4 MP
DP
-90 155 -90 -155 180 0 4574 3101 4 MP
DP
gr

gr

24 w
c9
0 sg
%%IncludeResource: font Helvetica
/Helvetica /WindowsLatin1Encoding 288 FMSR

2775  268 mt 
(PNW) s
%%IncludeResource: font Helvetica
/Helvetica /WindowsLatin1Encoding 240 FMSR

2477 4786 mt 
(Horizon \(hr\)) s
 365 4511 mt  -90 rotate
(RMSE Improvement \(%\) vs. Persistence) s
90 rotate
%%IncludeResource: font Helvetica
/Helvetica /WindowsLatin1Encoding 120 FMSR

 765 4341 mt 
( ) s
5425  511 mt 
( ) s
6 w
1 sg
0 666 1233 0 0 -666 786 1122 4 MP
PP
-1233 0 0 666 1233 0 0 -666 786 1122 5 MP stroke
4 w
DO
SO
6 w
0 sg
 786  456 mt 2019  456 L
 786 1122 mt 2019 1122 L
2019 1122 mt 2019  456 L
 786 1122 mt  786  456 L
 786 1122 mt 2019 1122 L
 786 1122 mt  786  456 L
 786  456 mt 2019  456 L
 786 1122 mt 2019 1122 L
2019 1122 mt 2019  456 L
 786 1122 mt  786  456 L
%%IncludeResource: font Helvetica
/Helvetica /WindowsLatin1Encoding 240 FMSR

1254  718 mt 
(CLG) s
gs 786 456 1234 667 rc
24 w
6 w
gr

c8
  90   90 1038  633 FO
gs 786 456 1234 667 rc
gr

0 sg
1254 1031 mt 
(ARMA) s
gs 786 456 1234 667 rc
24 w
6 w
gr

0 j
-90 155 -90 -155 180 0 948 997 4 MP
c9
DP
gs 786 456 1234 667 rc
gr


end %%Color Dict

eplot
%%EndObject

epage
end

showpage

%%Trailer
%%EOF
