%!PS-Adobe-3.0 EPSF-3.0
%%Creator: MATLAB, The Mathworks, Inc. Version 7.9.0.529 (R2009b). Operating System: Microsoft Windows Vista.
%%Title: C:\Users\Chris\Documents\thesis\thesis\MATLAB\regimes.eps
%%CreationDate: 12/07/2010  21:35:44
%%DocumentNeededFonts: Helvetica
%%DocumentProcessColors: Cyan Magenta Yellow Black
%%LanguageLevel: 2
%%Pages: 1
%%BoundingBox:    55   184   556   607
%%EndComments

%%BeginProlog
% MathWorks dictionary
/MathWorks 160 dict begin
% definition operators
/bdef {bind def} bind def
/ldef {load def} bind def
/xdef {exch def} bdef
/xstore {exch store} bdef
% operator abbreviations
/c  /clip ldef
/cc /concat ldef
/cp /closepath ldef
/gr /grestore ldef
/gs /gsave ldef
/mt /moveto ldef
/np /newpath ldef
/cm /currentmatrix ldef
/sm /setmatrix ldef
/rm /rmoveto ldef
/rl /rlineto ldef
/s {show newpath} bdef
/sc {setcmykcolor} bdef
/sr /setrgbcolor ldef
/sg /setgray ldef
/w /setlinewidth ldef
/j /setlinejoin ldef
/cap /setlinecap ldef
/rc {rectclip} bdef
/rf {rectfill} bdef
% page state control
/pgsv () def
/bpage {/pgsv save def} bdef
/epage {pgsv restore} bdef
/bplot /gsave ldef
/eplot {stroke grestore} bdef
% orientation switch
/portraitMode 0 def /landscapeMode 1 def /rotateMode 2 def
% coordinate system mappings
/dpi2point 0 def
% font control
/FontSize 0 def
/FMS {/FontSize xstore findfont [FontSize 0 0 FontSize neg 0 0]
  makefont setfont} bdef
/ISOLatin1Encoding where {pop /WindowsLatin1Encoding 256 array bdef
ISOLatin1Encoding WindowsLatin1Encoding copy pop
/.notdef/.notdef/quotesinglbase/florin/quotedblbase/ellipsis/dagger
/daggerdbl/circumflex/perthousand/Scaron/guilsinglleft/OE/.notdef/.notdef
/.notdef/.notdef/quoteleft/quoteright/quotedblleft/quotedblright/bullet
/endash/emdash/tilde/trademark/scaron/guilsinglright/oe/.notdef/.notdef
/Ydieresis WindowsLatin1Encoding 128 32 getinterval astore pop}
{/WindowsLatin1Encoding StandardEncoding bdef} ifelse
/reencode {exch dup where {pop load} {pop StandardEncoding} ifelse
  exch dup 3 1 roll findfont dup length dict begin
  { 1 index /FID ne {def}{pop pop} ifelse } forall
  /Encoding exch def currentdict end definefont pop} bdef
/isroman {findfont /CharStrings get /Agrave known} bdef
/FMSR {3 1 roll 1 index dup isroman {reencode} {pop pop} ifelse
  exch FMS} bdef
/csm {1 dpi2point div -1 dpi2point div scale neg translate
 dup landscapeMode eq {pop -90 rotate}
  {rotateMode eq {90 rotate} if} ifelse} bdef
% line types: solid, dotted, dashed, dotdash
/SO { [] 0 setdash } bdef
/DO { [.5 dpi2point mul 4 dpi2point mul] 0 setdash } bdef
/DA { [6 dpi2point mul] 0 setdash } bdef
/DD { [.5 dpi2point mul 4 dpi2point mul 6 dpi2point mul 4
  dpi2point mul] 0 setdash } bdef
% macros for lines and objects
/L {lineto stroke} bdef
/MP {3 1 roll moveto 1 sub {rlineto} repeat} bdef
/AP {{rlineto} repeat} bdef
/PDlw -1 def
/W {/PDlw currentlinewidth def setlinewidth} def
/PP {closepath eofill} bdef
/DP {closepath stroke} bdef
/MR {4 -2 roll moveto dup  0 exch rlineto exch 0 rlineto
  neg 0 exch rlineto closepath} bdef
/FR {MR stroke} bdef
/PR {MR fill} bdef
/L1i {{currentfile picstr readhexstring pop} image} bdef
/tMatrix matrix def
/MakeOval {newpath tMatrix currentmatrix pop translate scale
0 0 1 0 360 arc tMatrix setmatrix} bdef
/FO {MakeOval stroke} bdef
/PO {MakeOval fill} bdef
/PD {currentlinewidth 2 div 0 360 arc fill
   PDlw -1 eq not {PDlw w /PDlw -1 def} if} def
/FA {newpath tMatrix currentmatrix pop translate scale
  0 0 1 5 -2 roll arc tMatrix setmatrix stroke} bdef
/PA {newpath tMatrix currentmatrix pop	translate 0 0 moveto scale
  0 0 1 5 -2 roll arc closepath tMatrix setmatrix fill} bdef
/FAn {newpath tMatrix currentmatrix pop translate scale
  0 0 1 5 -2 roll arcn tMatrix setmatrix stroke} bdef
/PAn {newpath tMatrix currentmatrix pop translate 0 0 moveto scale
  0 0 1 5 -2 roll arcn closepath tMatrix setmatrix fill} bdef
/vradius 0 def /hradius 0 def /lry 0 def
/lrx 0 def /uly 0 def /ulx 0 def /rad 0 def
/MRR {/vradius xdef /hradius xdef /lry xdef /lrx xdef /uly xdef
  /ulx xdef newpath tMatrix currentmatrix pop ulx hradius add uly
  vradius add translate hradius vradius scale 0 0 1 180 270 arc 
  tMatrix setmatrix lrx hradius sub uly vradius add translate
  hradius vradius scale 0 0 1 270 360 arc tMatrix setmatrix
  lrx hradius sub lry vradius sub translate hradius vradius scale
  0 0 1 0 90 arc tMatrix setmatrix ulx hradius add lry vradius sub
  translate hradius vradius scale 0 0 1 90 180 arc tMatrix setmatrix
  closepath} bdef
/FRR {MRR stroke } bdef
/PRR {MRR fill } bdef
/MlrRR {/lry xdef /lrx xdef /uly xdef /ulx xdef /rad lry uly sub 2 div def
  newpath tMatrix currentmatrix pop ulx rad add uly rad add translate
  rad rad scale 0 0 1 90 270 arc tMatrix setmatrix lrx rad sub lry rad
  sub translate rad rad scale 0 0 1 270 90 arc tMatrix setmatrix
  closepath} bdef
/FlrRR {MlrRR stroke } bdef
/PlrRR {MlrRR fill } bdef
/MtbRR {/lry xdef /lrx xdef /uly xdef /ulx xdef /rad lrx ulx sub 2 div def
  newpath tMatrix currentmatrix pop ulx rad add uly rad add translate
  rad rad scale 0 0 1 180 360 arc tMatrix setmatrix lrx rad sub lry rad
  sub translate rad rad scale 0 0 1 0 180 arc tMatrix setmatrix
  closepath} bdef
/FtbRR {MtbRR stroke } bdef
/PtbRR {MtbRR fill } bdef
/stri 6 array def /dtri 6 array def
/smat 6 array def /dmat 6 array def
/tmat1 6 array def /tmat2 6 array def /dif 3 array def
/asub {/ind2 exch def /ind1 exch def dup dup
  ind1 get exch ind2 get sub exch } bdef
/tri_to_matrix {
  2 0 asub 3 1 asub 4 0 asub 5 1 asub
  dup 0 get exch 1 get 7 -1 roll astore } bdef
/compute_transform {
  dmat dtri tri_to_matrix tmat1 invertmatrix 
  smat stri tri_to_matrix tmat2 concatmatrix } bdef
/ds {stri astore pop} bdef
/dt {dtri astore pop} bdef
/db {2 copy /cols xdef /rows xdef mul dup 3 mul string
  currentfile 
  3 index 0 eq {/ASCIIHexDecode filter}
  {/ASCII85Decode filter 3 index 2 eq {/RunLengthDecode filter} if }
  ifelse exch readstring pop
  dup 0 3 index getinterval /rbmap xdef
  dup 2 index dup getinterval /gbmap xdef
  1 index dup 2 mul exch getinterval /bbmap xdef pop pop}bdef
/it {gs np dtri aload pop moveto lineto lineto cp c
  cols rows 8 compute_transform 
  rbmap gbmap bbmap true 3 colorimage gr}bdef
/il {newpath moveto lineto stroke}bdef
currentdict end def
%%EndProlog

%%BeginSetup
MathWorks begin

0 cap

end
%%EndSetup

%%Page: 1 1
%%BeginPageSetup
%%PageBoundingBox:    55   184   556   607
MathWorks begin
bpage
%%EndPageSetup

%%BeginObject: obj1
bplot

/dpi2point 12 def
portraitMode 0660 7284 csm

    0     0  6012  5067 rc
85 dict begin %Colortable dictionary
/c0 { 0.000000 0.000000 0.000000 sr} bdef
/c1 { 1.000000 1.000000 1.000000 sr} bdef
/c2 { 0.900000 0.000000 0.000000 sr} bdef
/c3 { 0.000000 0.820000 0.000000 sr} bdef
/c4 { 0.000000 0.000000 0.800000 sr} bdef
/c5 { 0.910000 0.820000 0.320000 sr} bdef
/c6 { 1.000000 0.260000 0.820000 sr} bdef
/c7 { 0.000000 0.820000 0.820000 sr} bdef
c0
1 j
1 sg
   0    0 6013 5068 rf
6 w
0 4096 4598 0 0 -4096 843 4510 4 MP
PP
-4598 0 0 4096 4598 0 0 -4096 843 4510 5 MP stroke
4 w
DO
SO
6 w
0 sg
 843  414 mt 5441  414 L
 843 4510 mt 5441 4510 L
5441 4510 mt 5441  414 L
 843 4510 mt  843  414 L
 843 4510 mt 5441 4510 L
 843 4510 mt  843  414 L
1417 4510 mt 1417 4464 L
1417  414 mt 1417  459 L
%%IncludeResource: font Helvetica
/Helvetica /WindowsLatin1Encoding 240 FMSR

1351 4767 mt 
(1) s
2567 4510 mt 2567 4464 L
2567  414 mt 2567  459 L
2501 4767 mt 
(2) s
3716 4510 mt 3716 4464 L
3716  414 mt 3716  459 L
3650 4767 mt 
(3) s
4866 4510 mt 4866 4464 L
4866  414 mt 4866  459 L
4800 4767 mt 
(4) s
 843 4510 mt  888 4510 L
5441 4510 mt 5395 4510 L
 335 4599 mt 
(-0.5) s
 843 3924 mt  888 3924 L
5441 3924 mt 5395 3924 L
 675 4013 mt 
(0) s
 843 3339 mt  888 3339 L
5441 3339 mt 5395 3339 L
 475 3428 mt 
(0.5) s
 843 2754 mt  888 2754 L
5441 2754 mt 5395 2754 L
 675 2843 mt 
(1) s
 843 2169 mt  888 2169 L
5441 2169 mt 5395 2169 L
 475 2258 mt 
(1.5) s
 843 1584 mt  888 1584 L
5441 1584 mt 5395 1584 L
 675 1673 mt 
(2) s
 843  999 mt  888  999 L
5441  999 mt 5395  999 L
 475 1088 mt 
(2.5) s
 843  414 mt  888  414 L
5441  414 mt 5395  414 L
 675  503 mt 
(3) s
 843  414 mt 5441  414 L
 843 4510 mt 5441 4510 L
5441 4510 mt 5441  414 L
 843 4510 mt  843  414 L
gs 843 414 4599 4097 rc
24 w
/c8 { 0.000000 0.000000 1.000000 sr} bdef
c8
1417 3924 PD
69 0 1383 3924 2 MP stroke
69 0 1383 3924 2 MP stroke
0 712 2567 3195 2 MP stroke
69 0 2532 3195 2 MP stroke
69 0 2532 3907 2 MP stroke
0 946 3716 2580 2 MP stroke
69 0 3682 2580 2 MP stroke
69 0 3682 3526 2 MP stroke
0 2067 4866 1865 2 MP stroke
69 0 4831 1865 2 MP stroke
69 0 4831 3932 2 MP stroke
gr

24 w
c8
1354 3861 mt 1480 3987 L
1480 3861 mt 1354 3987 L
2504 3488 mt 2630 3614 L
2630 3488 mt 2504 3614 L
3653 2990 mt 3779 3116 L
3779 2990 mt 3653 3116 L
4803 2836 mt 4929 2962 L
4929 2836 mt 4803 2962 L
gs 843 414 4599 4097 rc
/c9 { 0.000000 0.500000 0.000000 sr} bdef
c9
1417 3924 PD
69 0 1383 3924 2 MP stroke
69 0 1383 3924 2 MP stroke
0 501 2567 2697 2 MP stroke
69 0 2532 2697 2 MP stroke
69 0 2532 3198 2 MP stroke
0 1177 3716 1404 2 MP stroke
69 0 3682 1404 2 MP stroke
69 0 3682 2581 2 MP stroke
0 875 4866 898 2 MP stroke
69 0 4831 898 2 MP stroke
69 0 4831 1773 2 MP stroke
gr

c9
  90   90 1417 3924 FO
  90   90 2567 2948 FO
  90   90 3716 1992 FO
  90   90 4866 1336 FO
gs 843 414 4599 4097 rc
gr

0 sg
1881  223 mt 
(Effect of Regimes \(h=1\)) s
2992 4998 mt 
(|R|) s
 226 4255 mt  -90 rotate
(RMSE Improvement \(%\) vs. |R|=1) s
90 rotate
%%IncludeResource: font Helvetica
/Helvetica /WindowsLatin1Encoding 120 FMSR

 826 4553 mt 
( ) s
5425  456 mt 
( ) s
6 w
1 sg
0 666 1134 0 0 -666 840 1089 4 MP
PP
-1134 0 0 666 1134 0 0 -666 840 1089 5 MP stroke
4 w
DO
SO
6 w
0 sg
 840  423 mt 1974  423 L
 840 1089 mt 1974 1089 L
1974 1089 mt 1974  423 L
 840 1089 mt  840  423 L
 840 1089 mt 1974 1089 L
 840 1089 mt  840  423 L
 840  423 mt 1974  423 L
 840 1089 mt 1974 1089 L
1974 1089 mt 1974  423 L
 840 1089 mt  840  423 L
%%IncludeResource: font Helvetica
/Helvetica /WindowsLatin1Encoding 240 FMSR

1324  685 mt 
(WI) s
gs 840 423 1135 667 rc
24 w
6 w
gr

c8
1037  537 mt 1163  663 L
1163  537 mt 1037  663 L
gs 840 423 1135 667 rc
gr

0 sg
1324  998 mt 
(PNW) s
gs 840 423 1135 667 rc
24 w
6 w
gr

c9
  90   90 1100  912 FO
gs 840 423 1135 667 rc
gr


end %%Color Dict

eplot
%%EndObject

epage
end

showpage

%%Trailer
%%EOF
